{
    "sid":"dummy",
    "time":"1680109254000",

    "lastaccessed": 1385115865500,
    "x-forwarded-for": null,
    "created": 1385115865500,
    "accessCount": 0,
    "addr": "10.37.137.31",
    "remoteaddr": "135.196.28.241",

    "body": {
        "status":"CONNECTED",
        "config": {
            "apps": [
                {
                    "id": 23,
                    "minAge": 3,
                    "name": "My game title",
                    "description": "Game description FIXME format",
                    "package": "org.example.game",
                    "size": 12345,
                    "download": {
                        "version": 123,
                        "url": "http://example.org/game.apk"
                    },
                    "genre": "Racing",
                    "genres": [
                        {
                            "genre": "Racing"
                        }
                    ],
                    "popular": 1,
                    "featured": 1,
                    "isfree": true,
                    "bought": false,
                    "downloadedfree": false,
                    "multipricing": {
                        "buy": [
                            {
                                "amount": 23.42,
                                "isocurrency": "EUR"
                            }
                        ],
                        "rent": [
                        ]
                    },
                    "images": [
                        {
                            "name": "STICK_SCREENSHOT",
                            "width": 512,
                            "height": 384,
                            "urls": [
                                {
                                    "url": "http://example.org/image.jpg"
                                }
                            ]
                        }
                    ]
                }
            ],
            "global": {
                "uitranslation": {
                    "country": [
                    ],
                    "version": 0
                },
                "newfeatured": {
                    "ages": [
                        {
                            "age": 3,
                            "entries": [
                                {
                                    "columnentries": [
                                        {
                                            "gameID": 254,
                                            "thumbnail": 12,
                                            "column": 1
                                        }
                                    ]
                                }
                            ]
                        }
                    ]
                }
            }
        }
    }
}
