{
  "body": {
    "success": true,
    "leaderBoard": [
      {
        "position": 1,
        "score": 42,
        "userPlayTag": "cweiske-dev",
        "avatarId": 11
      },
      {
        "position": 2,
        "score": 23,
        "userPlayTag": "anotheruser",
        "avatarId": 11
      }
    ]
  }
}
